Interacting with the Mastodon API from R
…
“Fun Fact”

Gab and Truth Social are technically also Mastodon instances

Mastodon instances

Get all instances via instances.social

Code

library(rtoot)
tbl <- get_fedi_instances(token = Sys.getenv("RTOOT_INSTANCES_SOCIAL_TOKEN"), n = 0)
tbl

# A tibble: 16,400 × 23
   id     name  updat…¹ check…² uptime up    dead  version ipv6  https…³ https…⁴
   <chr>  <chr> <chr>   <chr>    <int> <lgl> <lgl> <chr>   <lgl>   <int> <chr>  
 1 59067… mast… 2022-1… 2022-1…      1 TRUE  FALSE 4.0.2   FALSE       5 "F "   
 2 58f0c… pawo… 2022-1… 2022-1…      1 TRUE  FALSE 3.3.3   FALSE       5 "F "   
 3 58edf… mstd… 2022-1… 2022-1…      1 TRUE  FALSE 3.5.1   TRUE       10 "E "   
 4 58e38… mast… 2022-1… 2022-1…      1 TRUE  FALSE 3.4.6   TRUE       10 "E "   
 5 5f283… mast… 2022-1… 2022-1…      1 TRUE  FALSE 4.0.2   FALSE       5 "F "   
 6 59d93… coun… 2022-1… 2022-1…      1 TRUE  FALSE 2.8.0   TRUE        5 "F "   
 7 637b3… mstd… 2022-1… 2022-1…      1 TRUE  FALSE 4.0.2   TRUE        5 "F "   
 8 5c9d4… mas.… 2022-1… 2022-1…      1 TRUE  FALSE 4.0.2   TRUE        5 "F "   
 9 604db… mast… 2022-1… 2022-1…      1 TRUE  FALSE 4.0.2   TRUE        5 "F "   
10 637b3… gc2.… 2022-1… 2022-1…      1 FALSE FALSE 3.5.3   TRUE        5 "F "   
# … with 16,390 more rows, 12 more variables: obs_score <int>, obs_rank <chr>,
#   users <int>, statuses <int>, connections <chr>, open_registrations <lgl>,
#   thumbnail <chr>, thumbnail_proxy <chr>, active_users <int>, email <chr>,
#   admin <chr>, added_at <chr>, and abbreviated variable names ¹​updated_at,
#   ²​checked_at, ³​https_score, ⁴​https_rank
…
Instances: blocked domains

blocked <- get_instance_blocks("mastodon.social")
blocked

# A tibble: 173 × 4
   domain             digest                                     sever…¹ comment
   <chr>              <chr>                                      <chr>   <chr>  
 1 bgzashtita.es      9c74ca7a36db36bf782a264ce69033cca4317c416… silence Misinf…
 2 brighteon.social   0be5721be2346e0b892e6cc0db706b6b950a0d215… silence Conspi…
 3 bsd.moe            e19231735923fbb5ce6d73986339b08e5dad96c75… silence Harass…
 4 fr13nd5.com        86811acd84b7c3124aead2125fa22ae0a8f617517… silence Misinf…
 5 freeatlantis.com   23414c6b236b245c662efa05db8662743261e08cf… silence Misinf…
 6 freezepeach.xyz    079978fa420e3804995892d3da797cba45ab926ed… silence Harass…
 7 krdtube.org        e454341c985b667c14302990019e0045dde64a1de… silence Misinf…
 8 mstdn.foxfam.club  ae63b259151df535f1d408367458f52f8aaecbf48… silence Third-…
 9 noagendasocial.com 03862ed4050b1d6c7b914e369284d75f9cffd1728… silence Harass…
10 pawoo.net          e7c641cf9cd8b5c4513e22d0dfd3f914835a16bd4… silence Inappr…
# … with 163 more rows, and abbreviated variable name ¹​severity
count(blocked,comment,sort = TRUE)[1:3,]

# A tibble: 3 × 2
  comment                   n
  <chr>                 <int>
1 Hate speech              51
2 Third-party bots         44
3 Inappropriate content    27

Instances: emojis

emojis <- get_instance_emoji("fosstodon.org")
emojis

# A tibble: 745 × 5
   shortcode                url                          stati…¹ visib…² categ…³
   <chr>                    <chr>                        <chr>   <lgl>   <chr>  
 1 0ad                      https://cdn.fosstodon.org/c… https:… TRUE    <NA>   
 2 AntennaPod               https://cdn.fosstodon.org/c… https:… TRUE    <NA>   
 3 BlobCatGoogly            https://cdn.fosstodon.org/c… https:… TRUE    Blobcat
 4 Clojure                  https://cdn.fosstodon.org/c… https:… TRUE    <NA>   
 5 GrapheneOS               https://cdn.fosstodon.org/c… https:… TRUE    <NA>   
 6 NSFW_Stamp               https://cdn.fosstodon.org/c… https:… TRUE    <NA>   
 7 StarfleetInsignia        https://cdn.fosstodon.org/c… https:… TRUE    <NA>   
 8 ablobcatangel            https://cdn.fosstodon.org/c… https:… TRUE    Blobcat
 9 ablobcatattention        https://cdn.fosstodon.org/c… https:… TRUE    Blobcat
10 ablobcatattentionreverse https://cdn.fosstodon.org/c… https:… TRUE    Blobcat
# … with 735 more rows, and abbreviated variable names ¹​static_url,
#   ²​visible_in_picker, ³​category
…
Instances: trends

trends <- get_instance_trends("fosstodon.org")
trends

# A tibble: 70 × 5
   name                    url                          day        accou…¹  uses
   <chr>                   <chr>                        <date>       <int> <int>
 1 songsormoviesaboutfleas https://fosstodon.org/tags/… 2022-12-14      36    81
 2 songsormoviesaboutfleas https://fosstodon.org/tags/… 2022-12-13       0     0
 3 songsormoviesaboutfleas https://fosstodon.org/tags/… 2022-12-12       0     0
 4 songsormoviesaboutfleas https://fosstodon.org/tags/… 2022-12-11       0     0
 5 songsormoviesaboutfleas https://fosstodon.org/tags/… 2022-12-10       0     0
 6 songsormoviesaboutfleas https://fosstodon.org/tags/… 2022-12-09       0     0
 7 songsormoviesaboutfleas https://fosstodon.org/tags/… 2022-12-08       0     0
 8 waterfallwednesday      https://fosstodon.org/tags/… 2022-12-14      40    43
 9 waterfallwednesday      https://fosstodon.org/tags/… 2022-12-13       2     2
10 waterfallwednesday      https://fosstodon.org/tags/… 2022-12-12       1     1
# … with 60 more rows, and abbreviated variable name ¹​accounts
…
